Benchmarks • tidybayes
…
  `e[2]` = rnorm(k),
  `f[2]` = rnorm(k),
  `g[2]` = rnorm(k),
  `h[2]` = rnorm(k),
  `i[2]` = rnorm(k),
  `j[2]` = rnorm(k),
  `k[2]` = rnorm(k),
  `l[2]` = rnorm(k),
  stringsAsFactors = FALSE,
  check.names = FALSE
) %>%
  as_tibble()
df

## # A tibble: 50,000 x 15
##    .chain .iteration .draw `a[2]`  `b[2]` `c[2]`  `d[2]`  `e[2]` `f[2]`
##    <lgl>  <lgl>      <int>  <dbl>   <dbl>  <dbl>   <dbl>   <dbl>  <dbl>
##  1 NA     NA             1 -1.21   0.491  -1.42   0.892  -0.553  -0.276
##  2 NA     NA             2  0.277  0.0250  0.317 -0.573  -1.13    0.919
##  3 NA     NA             3  1.08   1.30    0.728  0.0640  0.0360 -1.02 
##  4 NA     NA             4 -2.35  -0.235  -1.90   0.0434 -1.17   -1.42 
##  5 NA     NA             5  0.429 -0.453  -1.14   1.80    0.0443 -0.660
##  6 NA     NA             6  0.506 -0.0111  0.577 -2.58    0.269   0.296
##  7 NA     NA             7 -0.575  0.933   0.198 -0.218  -0.182  -0.906
##  8 NA     NA             8 -0.547 -0.729   1.07   2.15   -1.27   -1.05 
##  9 NA     NA             9 -0.564  1.40    0.626  1.11    0.738  -0.778
## 10 NA     NA            10 -0.890 -0.0584 -0.700 -0.956  -2.27    1.02 
## # ... with 49,990 more rows, and 6 more variables: `g[2]` <dbl>,
## #   `h[2]` <dbl>, `i[2]` <dbl>, `j[2]` <dbl>, `k[2]` <dbl>, `l[2]` <dbl>
…
