Gather terms from a tidy data frame of parameter samples into a single column — gather_terms â€¢ tidybayes
…
    See also

    spread_samples, as_sample_tibble.

    Examples

library(dplyr)
data(RankCorr)

RankCorr %>%
  spread_samples(b[i,v], tau[i]) %>%
  gather_terms() %>%
  mean_qi()
#> |===================================================   | 94% ~0 s remaining     |====================================================  | 97% ~0 s remaining     
#> # A tibble: 144 x 7
#> # Groups:   i, v, term [144]
#>        i     v  term    estimate    conf.low  conf.high .prob
#>    <int> <int> <chr>       <dbl>       <dbl>      <dbl> <dbl>
#>  1     1     1     b -1.07813380 -1.24631300 -0.9054563  0.95
#>  2     1     1   tau  6.03129167  5.07486825  7.1405325  0.95
#>  3     1     2     b -1.82516817 -2.07576900 -1.5438657  0.95
#>  4     1     2   tau  6.03129167  5.07486825  7.1405325  0.95
#>  5     1     3     b  0.17349259  0.03489905  0.3170186  0.95
#>  6     1     3   tau  6.03129167  5.07486825  7.1405325  0.95
#>  7     1     4     b -0.09884865 -0.34174593  0.1410597  0.95
#>  8     1     4   tau  6.03129167  5.07486825  7.1405325  0.95
#>  9     2     1     b -0.73395324 -1.03256875 -0.4346341  0.95
#> 10     2     1   tau  3.37725239  2.40876750  4.5755795  0.95
#> # ... with 134 more rows
…
#> # A tibble: 235 x 5
#> # Groups:   term [235]
#>       term    estimate    conf.low  conf.high .prob
#>      <chr>       <dbl>       <dbl>      <dbl> <dbl>
#>  1  b[1,1] -1.07813380 -1.24631300 -0.9054563  0.95
#>  2  b[1,2] -1.82516817 -2.07576900 -1.5438657  0.95
#>  3  b[1,3]  0.17349259  0.03489905  0.3170186  0.95
#>  4  b[1,4] -0.09884865 -0.34174593  0.1410597  0.95
#>  5 b[10,1] -0.49728198 -0.67700202 -0.3091694  0.95
#>  6 b[10,2] -1.70815594 -1.99129300 -1.4242285  0.95
#>  7 b[10,3]  0.03443984 -0.11406630  0.1873531  0.95
#>  8 b[10,4]  0.32755347  0.07510573  0.5739541  0.95
#>  9 b[11,1] -1.19414856 -1.37085550 -1.0125650  0.95
#> 10 b[11,2] -2.38960803 -2.65112400 -2.1254285  0.95
#> # ... with 225 more rows
…
