Extract draws of variables in a Bayesian model fit into a tidy data format — gather_draws • tidybayes
…
    See also

    recover_types, compose_data.

    Examples

library(dplyr)
library(ggplot2)

data(RankCorr, package = "tidybayes")

RankCorr %>%
  spread_draws(b[i, j])
#> # A tibble: 72,000 x 6
#> # Groups:   i, j [72]
#>    .chain .iteration .draw     i     j        b
#>     <int>      <int> <int> <int> <int>    <dbl>
#>  1      1          1     1     1     1 -1.16   
#>  2      1          1     1     1     2 -1.69   
#>  3      1          1     1     1     3  0.282  
#>  4      1          1     1     1     4 -0.295  
#>  5      1          1     1     2     1 -0.587  
#>  6      1          1     1     2     2  0.00727
#>  7      1          1     1     2     3 -0.0850 
#>  8      1          1     1     2     4  0.154  
#>  9      1          1     1     3     1 -0.413  
#> 10      1          1     1     3     2 -0.769  
#> # ... with 71,990 more rows

RankCorr %>%
  spread_draws(b[i, j], tau[i], u_tau[i])
#> # A tibble: 72,000 x 8
#> # Groups:   i, j [72]
#>    .chain .iteration .draw     i     j        b   tau u_tau
#>     <int>      <int> <int> <int> <int>    <dbl> <dbl> <dbl>
#>  1      1          1     1     1     1 -1.16     7.13  6.65
#>  2      1          1     1     1     2 -1.69     7.13  6.65
#>  3      1          1     1     1     3  0.282    7.13  6.65
#>  4      1          1     1     1     4 -0.295    7.13  6.65
#>  5      1          1     1     2     1 -0.587    3.08  4.94
#>  6      1          1     1     2     2  0.00727  3.08  4.94
#>  7      1          1     1     2     3 -0.0850   3.08  4.94
#>  8      1          1     1     2     4  0.154    3.08  4.94
#>  9      1          1     1     3     1 -0.413    3.48  5.51
#> 10      1          1     1     3     2 -0.769    3.48  5.51
#> # ... with 71,990 more rows

RankCorr %>%
  gather_draws(b[i, j], tau[i], u_tau[i])
#> # A tibble: 108,000 x 7
#> # Groups:   i, j, .variable [108]
#>    .chain .iteration .draw     i     j .variable   .value
#>     <int>      <int> <int> <int> <int> <chr>        <dbl>
#>  1      1          1     1     1     1 b         -1.16   
#>  2      1          1     1     1     2 b         -1.69   
#>  3      1          1     1     1     3 b          0.282  
#>  4      1          1     1     1     4 b         -0.295  
#>  5      1          1     1     2     1 b         -0.587  
#>  6      1          1     1     2     2 b          0.00727
#>  7      1          1     1     2     3 b         -0.0850 
#>  8      1          1     1     2     4 b          0.154  
#>  9      1          1     1     3     1 b         -0.413  
#> 10      1          1     1     3     2 b         -0.769  
#> # ... with 107,990 more rows
…
