Get a sample of posterior draws from a model as a tibble — tidy_draws • tidybayes
…
    See also

    spread_draws() or gather_draws(), which use this function
internally and provides a friendly interface for extracting tidy data frames from model fits.

    Examples

library(magrittr)

data(line, package = "coda")

line %>%
  tidy_draws()
#> # A tibble: 400 x 6
#>    .chain .iteration .draw alpha   beta  sigma
#>     <int>      <int> <int> <dbl>  <dbl>  <dbl>
#>  1      1          1     1  7.17 -1.57  11.2  
#>  2      1          2     2  2.95  1.50   4.89 
#>  3      1          3     3  3.67  0.628  1.40 
#>  4      1          4     4  3.32  1.18   0.663
#>  5      1          5     5  3.71  0.490  1.36 
#>  6      1          6     6  3.58  0.207  1.04 
#>  7      1          7     7  2.70  0.883  1.29 
#>  8      1          8     8  2.96  1.09   0.459
#>  9      1          9     9  3.53  1.07   0.634
#> 10      1         10    10  2.09  1.48   0.913
#> # ... with 390 more rows
…
